{
  "_data": [
    {
      "_name": "COST1KWH",
      "_value": 0.05,
      "_comment": "Leveringskosten Normaaltarief (kWh)"
    },
    {
      "_name": "COST2KWH",
      "_value": 0.04,
      "_comment": "Leveringskosten Daltarief (kWh)"
    },
    {
      "_name": "DELIVERYDAY",
      "_value": 0.25,
      "_comment": "Vaste leveringskosten (dag)"
    },
    {
      "_name": "NETWORKDAY",
      "_value": 0.70,
      "_comment": "Netbeheerkosten (dag)"
    },
    {
      "_name": "TAX1UNIT",
      "_value": 0.15,
      "_comment": "Energiebelasting (kWh)"
    },
    {
      "_name": "TAX2UNIT",
      "_value": 0.02,
      "_comment": "Opslag Duurzame Energie (kWh)"
    },
    {
      "_name": "TAXDAY",
      "_value": -1.00,
      "_comment": "Vermindering energiebelasting (dag)"
    }
  ]
}